"id","create_uid/id","create_date","write_uid/id","write_date","nombre","parent_id/id"
"__export__.juristas_jurisprudencia_origen_1","base.user_root","2015-08-13 10:20:17","base.user_root","2015-08-13 10:20:17","Tribunal Supremo",""
"__export__.juristas_jurisprudencia_origen_2","base.user_root","2015-08-13 10:20:17","base.user_root","2015-08-13 10:20:17","Audiencia Provincial",""
"__export__.juristas_jurisprudencia_origen_5","base.user_root","2015-08-13 10:20:17","base.user_root","2015-08-13 10:20:17","Audiencia Provincial de Lugo",""
"__export__.juristas_jurisprudencia_origen_6","base.user_root","2015-08-13 10:20:17","base.user_root","2015-08-13 10:20:17","Sala de lo Penal",""
"__export__.juristas_jurisprudencia_origen_7","base.user_root","2015-08-13 10:20:17","base.user_root","2015-08-13 10:20:17","Tribunal Supremo","__export__.juristas_jurisprudencia_origen_6"
"__export__.juristas_jurisprudencia_origen_8","base.user_root","2015-08-13 10:20:17","base.user_root","2015-08-13 10:20:17","Sala  de lo civil",""
"__export__.juristas_jurisprudencia_origen_9","base.user_root","2015-08-13 10:20:17","base.user_root","2015-08-13 10:20:17","Tribunal Supremo","__export__.juristas_jurisprudencia_origen_8"
"__export__.juristas_jurisprudencia_origen_10","base.user_root","2015-08-13 10:20:17","base.user_root","2015-08-13 10:20:17","de Castellón",""
"__export__.juristas_jurisprudencia_origen_11","base.user_root","2015-08-13 10:20:17","base.user_root","2015-08-13 10:20:17","Audiencia Provincial","__export__.juristas_jurisprudencia_origen_10"
"__export__.juristas_jurisprudencia_origen_12","base.user_root","2015-08-13 10:20:17","base.user_root","2015-08-13 10:20:17","de Lugo",""
"__export__.juristas_jurisprudencia_origen_13","base.user_root","2015-08-13 10:20:17","base.user_root","2015-08-13 10:20:17","Audiencia Provincial","__export__.juristas_jurisprudencia_origen_12"
"__export__.juristas_jurisprudencia_origen_14","base.user_root","2015-08-13 10:20:17","base.user_root","2015-08-13 10:20:17","Audiencia Provincial","__export__.juristas_jurisprudencia_origen_12"
"__export__.juristas_organo_25","base.user_root","2015-08-13 10:20:17","base.user_root","2015-08-13 10:20:17","Juzgado de Instrucción",""
"__export__.juristas_organo_26","base.user_root","2015-08-13 10:20:17","base.user_root","2015-08-13 10:20:17","Número 3 de Santiago Compostela","__export__.juristas_organo_25"
"__export__.juristas_organo_27","base.user_root","2015-08-13 10:20:17","base.user_root","2015-08-13 10:20:17","Juzgado de lo Penal",""
"__export__.juristas_organo_28","base.user_root","2015-08-13 10:20:17","base.user_root","2015-08-13 10:20:17","Número 1 de Santiago de Compostela","__export__.juristas_organo_27"
